Graph G {
	overlap = scale;
	splines = true;
	42 -- 20;
	42 -- 14;
	42 -- 17;
	42 -- 7;
	42 -- 1;
	48 -- 23;
	48 -- 29;
	48 -- 5;
	48 -- 40;
	43 -- 52;
	43 -- 41;
	43 -- 32;
	49 -- 0;
	49 -- 16;
	52 -- 35;
	52 -- 32;
	24 -- 31;
	24 -- 35;
	24 -- 34;
	24 -- 28;
	25 -- 43;
	25 -- 52;
	26 -- 45;
	27 -- 23;
	27 -- 48;
	27 -- 40;
	20 -- 4;
	20 -- 22;
	20 -- 11;
	20 -- 9;
	20 -- 17;
	20 -- 10;
	20 -- 40;
	20 -- 1;
	21 -- 20;
	21 -- 0;
	21 -- 22;
	21 -- 6;
	21 -- 14;
	21 -- 2;
	21 -- 18;
	21 -- 17;
	21 -- 7;
	22 -- 23;
	22 -- 4;
	22 -- 3;
	22 -- 14;
	22 -- 18;
	22 -- 17;
	23 -- 20;
	23 -- 0;
	23 -- 30;
	23 -- 18;
	23 -- 11;
	23 -- 5;
	23 -- 17;
	23 -- 15;
	23 -- 8;
	23 -- 21;
	23 -- 10;
	23 -- 50;
	23 -- 16;
	47 -- 36;
	47 -- 45;
	45 -- 36;
	45 -- 33;
	28 -- 34;
	29 -- 23;
	29 -- 27;
	29 -- 5;
	29 -- 46;
	29 -- 40;
	40 -- 23;
	40 -- 46;
	41 -- 35;
	41 -- 51;
	41 -- 32;
	1 -- 23;
	1 -- 4;
	1 -- 18;
	0 -- 20;
	0 -- 4;
	0 -- 3;
	0 -- 22;
	0 -- 2;
	0 -- 9;
	0 -- 7;
	3 -- 20;
	3 -- 4;
	3 -- 6;
	3 -- 14;
	3 -- 2;
	3 -- 13;
	3 -- 21;
	3 -- 7;
	3 -- 10;
	2 -- 20;
	2 -- 23;
	2 -- 22;
	2 -- 11;
	2 -- 17;
	2 -- 49;
	2 -- 8;
	2 -- 16;
	5 -- 27;
	5 -- 8;
	5 -- 46;
	5 -- 40;
	4 -- 2;
	4 -- 18;
	4 -- 13;
	4 -- 17;
	4 -- 21;
	4 -- 7;
	7 -- 20;
	7 -- 23;
	7 -- 22;
	7 -- 6;
	7 -- 2;
	7 -- 13;
	7 -- 15;
	7 -- 8;
	7 -- 1;
	6 -- 20;
	6 -- 0;
	6 -- 4;
	6 -- 11;
	9 -- 23;
	9 -- 2;
	9 -- 11;
	9 -- 49;
	9 -- 8;
	9 -- 7;
	8 -- 0;
	8 -- 27;
	8 -- 18;
	8 -- 17;
	8 -- 49;
	39 -- 45;
	39 -- 33;
	38 -- 36;
	38 -- 45;
	38 -- 47;
	38 -- 12;
	38 -- 33;
	11 -- 4;
	11 -- 3;
	11 -- 22;
	11 -- 13;
	11 -- 17;
	11 -- 21;
	11 -- 7;
	10 -- 0;
	10 -- 4;
	13 -- 20;
	13 -- 0;
	13 -- 23;
	13 -- 6;
	13 -- 14;
	13 -- 2;
	13 -- 9;
	13 -- 21;
	13 -- 10;
	13 -- 16;
	12 -- 36;
	12 -- 37;
	12 -- 45;
	12 -- 47;
	12 -- 33;
	12 -- 39;
	15 -- 20;
	15 -- 4;
	15 -- 3;
	15 -- 6;
	15 -- 14;
	15 -- 18;
	15 -- 11;
	15 -- 13;
	14 -- 20;
	14 -- 0;
	14 -- 4;
	14 -- 6;
	14 -- 18;
	14 -- 11;
	14 -- 17;
	14 -- 7;
	14 -- 10;
	14 -- 1;
	17 -- 0;
	17 -- 3;
	17 -- 7;
	17 -- 1;
	16 -- 11;
	16 -- 9;
	19 -- 44;
	19 -- 30;
	19 -- 23;
	18 -- 20;
	18 -- 0;
	18 -- 3;
	18 -- 6;
	18 -- 2;
	18 -- 11;
	18 -- 13;
	18 -- 17;
	18 -- 7;
	18 -- 42;
	31 -- 34;
	31 -- 28;
	30 -- 44;
	37 -- 36;
	37 -- 38;
	37 -- 45;
	35 -- 43;
	35 -- 25;
	33 -- 36;
	33 -- 37;
	33 -- 47;
	32 -- 51;
	50 -- 44;
	50 -- 30;
}
